name: Endpoints
description: ''
endpoints:
  -
    httpMethods:
      - GET
    uri: api/v1/tasks
    metadata:
      groupName: Endpoints
      groupDescription: ''
      subgroup: ''
      subgroupDescription: ''
      title: ''
      description: ''
      authenticated: false
      deprecated: false
      custom: []
    headers:
      Content-Type: application/json
      Accept: application/json
    urlParameters: []
    cleanUrlParameters: []
    queryParameters: []
    cleanQueryParameters: []
    bodyParameters: []
    cleanBodyParameters: []
    fileParameters: []
    responses:
      -
        status: 200
        content: '{"success":true,"data":[{"id":1,"title":"Aliquam quae maiores optio doloremque unde doloremque.","completed":true,"status":"completed","created_at":"2025-09-19T16:12:00.000000Z","updated_at":"2025-09-19T18:46:45.000000Z","deleted_at":null,"is_deleted":false},{"id":2,"title":"In ad ut provident numquam.","completed":true,"status":"completed","created_at":"2025-09-19T16:12:00.000000Z","updated_at":"2025-09-19T18:48:27.000000Z","deleted_at":null,"is_deleted":false},{"id":3,"title":"Dolores iure sunt non ut ducimus perspiciatis.","completed":true,"status":"completed","created_at":"2025-09-19T16:12:00.000000Z","updated_at":"2025-09-19T16:12:00.000000Z","deleted_at":null,"is_deleted":false},{"id":4,"title":"Omnis tempora molestias id saepe architecto vel rem.","completed":true,"status":"completed","created_at":"2025-09-19T16:12:00.000000Z","updated_at":"2025-09-19T16:12:00.000000Z","deleted_at":null,"is_deleted":false},{"id":5,"title":"Nobis aut magnam quidem sed voluptas facere itaque.","completed":true,"status":"completed","created_at":"2025-09-19T16:12:00.000000Z","updated_at":"2025-09-19T18:49:13.000000Z","deleted_at":null,"is_deleted":false},{"id":6,"title":"Delectus molestias autem nesciunt.","completed":false,"status":"pending","created_at":"2025-09-19T16:12:00.000000Z","updated_at":"2025-09-19T16:12:00.000000Z","deleted_at":null,"is_deleted":false},{"id":7,"title":"Laborum iste fuga eligendi doloribus.","completed":true,"status":"completed","created_at":"2025-09-19T16:12:00.000000Z","updated_at":"2025-09-19T16:12:00.000000Z","deleted_at":null,"is_deleted":false},{"id":8,"title":"Fugit sint qui aliquam.","completed":false,"status":"pending","created_at":"2025-09-19T16:12:00.000000Z","updated_at":"2025-09-19T16:12:00.000000Z","deleted_at":null,"is_deleted":false},{"id":9,"title":"Eius sapiente doloremque suscipit eum sapiente commodi animi.","completed":true,"status":"completed","created_at":"2025-09-19T16:12:00.000000Z","updated_at":"2025-09-19T19:50:08.000000Z","deleted_at":null,"is_deleted":false},{"id":10,"title":"Eum iste eum est molestias omnis totam culpa molestiae.","completed":true,"status":"completed","created_at":"2025-09-19T16:12:00.000000Z","updated_at":"2025-09-19T19:50:45.000000Z","deleted_at":null,"is_deleted":false},{"id":11,"title":"Aut est esse dolorum inventore placeat veritatis.","completed":false,"status":"pending","created_at":"2025-09-19T16:12:00.000000Z","updated_at":"2025-09-19T16:12:00.000000Z","deleted_at":null,"is_deleted":false},{"id":12,"title":"Accusamus et quo omnis est corrupti et veniam.","completed":false,"status":"pending","created_at":"2025-09-19T16:12:00.000000Z","updated_at":"2025-09-19T16:12:00.000000Z","deleted_at":null,"is_deleted":false},{"id":13,"title":"Consequuntur aspernatur dolores accusamus nostrum laborum debitis id eligendi.","completed":true,"status":"completed","created_at":"2025-09-19T16:12:00.000000Z","updated_at":"2025-09-19T16:12:00.000000Z","deleted_at":null,"is_deleted":false},{"id":14,"title":"Natus dolores ullam voluptas omnis libero ut atque.","completed":true,"status":"completed","created_at":"2025-09-19T16:12:00.000000Z","updated_at":"2025-09-19T16:12:00.000000Z","deleted_at":null,"is_deleted":false},{"id":15,"title":"Voluptates corporis soluta error expedita omnis totam.","completed":false,"status":"pending","created_at":"2025-09-19T16:12:00.000000Z","updated_at":"2025-09-19T16:12:00.000000Z","deleted_at":null,"is_deleted":false}],"meta":{"total":42,"per_page":15,"current_page":1,"last_page":3,"from":1,"to":15},"links":{"first":"http:\/\/localhost\/api\/v1\/tasks?page=1","last":"http:\/\/localhost\/api\/v1\/tasks?page=3","prev":null,"next":"http:\/\/localhost\/api\/v1\/tasks?page=2"}}'
        headers:
          cache-control: 'no-cache, private'
          content-type: application/json
          access-control-allow-origin: '*'
        description: null
        custom: []
    responseFields: []
    auth: []
    controller: null
    method: null
    route: null
    custom: []
  -
    httpMethods:
      - POST
    uri: api/v1/tasks
    metadata:
      groupName: Endpoints
      groupDescription: ''
      subgroup: ''
      subgroupDescription: ''
      title: ''
      description: ''
      authenticated: false
      deprecated: false
      custom: []
    headers:
      Content-Type: application/json
      Accept: application/json
    urlParameters: []
    cleanUrlParameters: []
    queryParameters: []
    cleanQueryParameters: []
    bodyParameters:
      title:
        name: title
        description: 'Must not be greater than 255 characters. Must be at least 3 characters.'
        required: true
        example: bngzmiyvdljnikhwaykcmyuwpwlvqwrsitcpscqldzsnrwtujwvlxjklqppwqbewtnnoqitpxn
        type: string
        enumValues: []
        exampleWasSpecified: false
        nullable: false
        custom: []
    cleanBodyParameters:
      title: bngzmiyvdljnikhwaykcmyuwpwlvqwrsitcpscqldzsnrwtujwvlxjklqppwqbewtnnoqitpxn
    fileParameters: []
    responses: []
    responseFields: []
    auth: []
    controller: null
    method: null
    route: null
    custom: []
  -
    httpMethods:
      - GET
    uri: 'api/v1/tasks/{id}'
    metadata:
      groupName: Endpoints
      groupDescription: ''
      subgroup: ''
      subgroupDescription: ''
      title: ''
      description: ''
      authenticated: false
      deprecated: false
      custom: []
    headers:
      Content-Type: application/json
      Accept: application/json
    urlParameters:
      id:
        name: id
        description: 'The ID of the task.'
        required: true
        example: 1
        type: integer
        enumValues: []
        exampleWasSpecified: false
        nullable: false
        custom: []
    cleanUrlParameters:
      id: 1
    queryParameters: []
    cleanQueryParameters: []
    bodyParameters: []
    cleanBodyParameters: []
    fileParameters: []
    responses:
      -
        status: 200
        content: '{"success":true,"data":{"id":1,"title":"Aliquam quae maiores optio doloremque unde doloremque.","completed":true,"status":"completed","created_at":"2025-09-19T16:12:00.000000Z","updated_at":"2025-09-19T18:46:45.000000Z","deleted_at":null,"is_deleted":false}}'
        headers:
          cache-control: 'no-cache, private'
          content-type: application/json
          access-control-allow-origin: '*'
        description: null
        custom: []
    responseFields: []
    auth: []
    controller: null
    method: null
    route: null
    custom: []
  -
    httpMethods:
      - PUT
    uri: 'api/v1/tasks/{id}'
    metadata:
      groupName: Endpoints
      groupDescription: ''
      subgroup: ''
      subgroupDescription: ''
      title: ''
      description: ''
      authenticated: false
      deprecated: false
      custom: []
    headers:
      Content-Type: application/json
      Accept: application/json
    urlParameters:
      id:
        name: id
        description: 'The ID of the task.'
        required: true
        example: 1
        type: integer
        enumValues: []
        exampleWasSpecified: false
        nullable: false
        custom: []
    cleanUrlParameters:
      id: 1
    queryParameters: []
    cleanQueryParameters: []
    bodyParameters:
      title:
        name: title
        description: 'Must not be greater than 255 characters. Must be at least 3 characters.'
        required: true
        example: bngzmiyvdljnikhwaykcmyuwpwlvqwrsitcpscqldzsnrwtujwvlxjklqppwqbewtnnoqitpxn
        type: string
        enumValues: []
        exampleWasSpecified: false
        nullable: false
        custom: []
      completed:
        name: completed
        description: ''
        required: false
        example: true
        type: boolean
        enumValues: []
        exampleWasSpecified: false
        nullable: false
        custom: []
    cleanBodyParameters:
      title: bngzmiyvdljnikhwaykcmyuwpwlvqwrsitcpscqldzsnrwtujwvlxjklqppwqbewtnnoqitpxn
      completed: true
    fileParameters: []
    responses: []
    responseFields: []
    auth: []
    controller: null
    method: null
    route: null
    custom: []
  -
    httpMethods:
      - DELETE
    uri: 'api/v1/tasks/{id}'
    metadata:
      groupName: Endpoints
      groupDescription: ''
      subgroup: ''
      subgroupDescription: ''
      title: ''
      description: ''
      authenticated: false
      deprecated: false
      custom: []
    headers:
      Content-Type: application/json
      Accept: application/json
    urlParameters:
      id:
        name: id
        description: 'The ID of the task.'
        required: true
        example: 1
        type: integer
        enumValues: []
        exampleWasSpecified: false
        nullable: false
        custom: []
    cleanUrlParameters:
      id: 1
    queryParameters: []
    cleanQueryParameters: []
    bodyParameters: []
    cleanBodyParameters: []
    fileParameters: []
    responses: []
    responseFields: []
    auth: []
    controller: null
    method: null
    route: null
    custom: []
  -
    httpMethods:
      - PATCH
    uri: 'api/v1/tasks/{id}/complete'
    metadata:
      groupName: Endpoints
      groupDescription: ''
      subgroup: ''
      subgroupDescription: ''
      title: ''
      description: ''
      authenticated: false
      deprecated: false
      custom: []
    headers:
      Content-Type: application/json
      Accept: application/json
    urlParameters:
      id:
        name: id
        description: 'The ID of the task.'
        required: true
        example: 1
        type: integer
        enumValues: []
        exampleWasSpecified: false
        nullable: false
        custom: []
    cleanUrlParameters:
      id: 1
    queryParameters: []
    cleanQueryParameters: []
    bodyParameters: []
    cleanBodyParameters: []
    fileParameters: []
    responses: []
    responseFields: []
    auth: []
    controller: null
    method: null
    route: null
    custom: []
  -
    httpMethods:
      - PATCH
    uri: 'api/v1/tasks/{id}/pending'
    metadata:
      groupName: Endpoints
      groupDescription: ''
      subgroup: ''
      subgroupDescription: ''
      title: ''
      description: ''
      authenticated: false
      deprecated: false
      custom: []
    headers:
      Content-Type: application/json
      Accept: application/json
    urlParameters:
      id:
        name: id
        description: 'The ID of the task.'
        required: true
        example: 1
        type: integer
        enumValues: []
        exampleWasSpecified: false
        nullable: false
        custom: []
    cleanUrlParameters:
      id: 1
    queryParameters: []
    cleanQueryParameters: []
    bodyParameters: []
    cleanBodyParameters: []
    fileParameters: []
    responses: []
    responseFields: []
    auth: []
    controller: null
    method: null
    route: null
    custom: []
